module BalanceRange

go 1.19

require (
	github.com/jackc/pgx v3.6.2+incompatible
	github.com/jmoiron/sqlx v1.3.5
	github.com/pkg/errors v0.9.1
	github.com/redis/go-redis/v9 v9.0.2
)

require (
	github.com/cespare/xxhash/v2 v2.2.0 // indirect
	github.com/cockroachdb/apd v1.1.0 // indirect
	github.com/dgryski/go-rendezvous v0.0.0-20200823014737-9f7001d12a5f // indirect
	github.com/gofrs/uuid v4.4.0+incompatible // indirect
	github.com/jackc/fake v0.0.0-20150926172116-812a484cc733 // indirect
	github.com/shopspring/decimal v1.3.1 // indirect
	golang.org/x/crypto v0.7.0 // indirect
	golang.org/x/text v0.8.0 // indirect
)
